<svg xmlns="http://www.w3.org/2000/svg" xmlns:xlink="http://www.w3.org/1999/xlink" version="1.1" style="" xml:space="preserve" width="368.5530090332031" height="368.5530090332031"><rect id="backgroundrect" width="100%" height="100%" x="0" y="0" fill="none" stroke="none"/>

<g class="currentLayer" style=""><title>Layer 1</title>
	
	
	
<path fill="#ffffff" fill-opacity="1" stroke="none" stroke-opacity="1" stroke-width="1" stroke-dasharray="none" stroke-linejoin="miter" stroke-linecap="butt" stroke-dashoffset="" fill-rule="nonzero" opacity="1" marker-start="" marker-mid="" marker-end="" d="M66.64840753933711,135.66222931170688 C66.64840753933711,63.60538651674746 119.28860597264044,5.239343852830287 184.27650527301492,5.239343852830287 C249.2644045733894,5.239343852830287 301.90460300669275,63.60538651674746 301.90460300669275,135.66222931170688 C301.90460300669275,207.71907210666632 249.2644045733894,266.0851147705836 184.27650527301492,266.0851147705836 C119.28860597264044,266.0851147705836 66.64840753933711,207.71907210666632 66.64840753933711,135.66222931170688 z" id="svg_1" class=""/>
<path fill="#E8D15E" d="M184.27649709696098,47.16271005308002 c-28.52466405185546,0 -51.929516607224045,23.40485255536858 -51.929516607224045,52.66091824957931 c0,29.25606569421073 23.40485255536858,52.66091824957931 51.929516607224045,52.66091824957931 c28.52466405185546,0 51.929516607224045,-23.40485255536858 51.929516607224045,-52.66091824957931 C236.20601370418498,70.56756260844857 212.80116114881633,47.16271005308002 184.27649709696098,47.16271005308002 z" id="svg_3" class="" stroke="none"/>
<path fill="#ffffff" fill-opacity="1" stroke="none" stroke-opacity="1" stroke-width="1" stroke-dasharray="none" stroke-linejoin="miter" stroke-linecap="butt" stroke-dashoffset="" fill-rule="nonzero" opacity="1" marker-start="" marker-mid="" marker-end="" id="svg_8" d="M71.34862991646696,186.94049006916245 C71.34862991646696,186.94049006916245 297.2043983962577,188.1404000270012 297.2043983962577,188.1404000270012 C297.2043983962577,188.1404000270012 185.3946120201237,356.72774910334664 185.3946120201237,356.72774910334664 " style="color: rgb(0, 0, 0);" class=""/>
<path fill="#5F554E" d="M184.27650755977623,-1.7021276950836182 c-71.683,0 -130,58.317 -130,130 c0,87.26 119.188,229.855 124.263,235.883 c1.417,1.685 3.504,2.66 5.705,2.67 c0.011000000000000008,0 0.02100000000000001,0 0.03200000000000002,0 c2.189,0 4.271,-0.9570000000000003 5.696,-2.621 c5.075,-5.926 124.304,-146.165 124.304,-235.932 C314.27550755977626,56.61487230491638 255.95950755977628,-1.7021276950836182 184.27650755977623,-1.7021276950836182 zM184.32150755977625,347.54887230491636 C160.38450755977624,317.7778723049164 69.27650755977625,199.75087230491638 69.27650755977625,128.29787230491638 c0,-63.411 51.589,-115 115,-115 s115,51.589 115,115 C299.27550755977626,201.7878723049164 208.32650755977625,318.1268723049164 184.32150755977625,347.54887230491636 z" id="svg_2" class="" opacity="1" filter="" stroke="none" marker-start=""/>
<path fill="#92A93F" d="M89.95988344826709,128.52456264260877 c0,52.4719238549263 42.50890033816815,95.64502576087831 94.31662262531056,95.64502576087831 c51.80772228714242,0 94.31662262531056,-42.50890033816815 94.31662262531056,-95.64502576087831 c0,-33.87427995697773 -17.933442330164684,-64.42755207503609 -44.50150504151978,-81.03259126963302 c14.612434491245299,13.284031355677545 23.2470548724357,33.21007838919387 23.2470548724357,54.464528558277934 c0,41.180497202600385 -32.54587682140998,74.39057559179426 -73.0621724562265,74.39057559179426 c-40.51629563481651,0 -73.0621724562265,-33.21007838919387 -73.0621724562265,-74.39057559179426 c0,-21.254450169084073 9.298821948974282,-40.51629563481651 23.2470548724357,-54.464528558277934 C107.89332577843189,64.09701056757262 89.95988344826709,93.9860811178471 89.95988344826709,128.52456264260877 z" id="svg_4" class="" stroke="none"/>
<path fill="#ffffff" fill-opacity="1" stroke="none" stroke-opacity="1" stroke-width="1" stroke-dasharray="none" stroke-linejoin="miter" stroke-linecap="butt" stroke-dashoffset="" fill-rule="nonzero" opacity="1" marker-start="" marker-mid="" marker-end="" id="svg_6" d="M89.17013002639646,215.87668059899931 " style="color: rgb(0, 0, 0);"/></g><defs><marker xmlns:inkscape="http://www.inkscape.org/namespaces/inkscape" id="SquareL" refX="0" refY="0" orient="auto" inkscape:stockid="SquareL" overflow="visible">
            <path transform="scale(0.800000011920929) " d="M-5-5v10h10v-10h-10z" fill-rule="evenodd" stroke="#000" stroke-width="1pt" style="fill: none; stroke: none; stroke-dasharray: none;" id="svg_5"/>
        </marker></defs></svg>